Example raw datasets — example_emission_product_co2_des_analysis • tiltDataAnalysis
…
#> 8 comp_2       NZ 2050   2050                60
example_transition_risk_product_transition_risk_cov()
#> # A tibble: 8 × 3
#>   companies_id grouping_transition_risk     cov_transition_risk
#>   <chr>        <chr>                                      <dbl>
#> 1 comp_1       1.5C RPS_2030_tilt_subsector                  10
#> 2 comp_1       1.5C RPS_2050_tilt_subsector                  15
#> 3 comp_1       NZ 2050_2030_tilt_subsector                   20
#> 4 comp_1       NZ 2050_2050_tilt_subsector                   25
#> 5 comp_2       1.5C RPS_2030_tilt_subsector                  45
#> 6 comp_2       1.5C RPS_2050_tilt_subsector                  50
#> 7 comp_2       NZ 2050_2030_tilt_subsector                   55
#> 8 comp_2       NZ 2050_2050_tilt_subsector                   60
example_emission_product_best_case_worst_case()
#> # A tibble: 30 × 7
#>    companies_id grouping_emission country emission_category
#>    <chr>        <chr>             <chr>   <chr>            
#>  1 comp_1       all               france  high             
#>  2 comp_2       all               france  high             
#>  3 comp_1       all               france  high             
#>  4 comp_1       all               france  medium           
#>  5 comp_1       all               france  low              
#>  6 comp_1       all               france  low              
#>  7 comp_1       all               france  NA               
#>  8 comp_1       tilt_subsector    france  high             
#>  9 comp_1       tilt_subsector    france  medium           
#> 10 comp_1       tilt_subsector    france  medium           
#> # ℹ 20 more rows
#> # ℹ 3 more variables: emissions_profile_equal_weight <dbl>,
#> #   emissions_profile_best_case <dbl>, emissions_profile_worst_case <dbl>
…
#>  4 comp_2       france      NZ 2050   2030                           0.3 
#>  5 comp_3       austria     1.5C RPS  2030                           0.35
#>  6 comp_3       austria     NZ 2050   2030                           0.55
#>  7 comp_4       austria     1.5C RPS  2030                           0.7 
#>  8 comp_4       austria     NZ 2050   2030                           0.2 
#>  9 comp_5       germany     1.5C RPS  2030                           0.7 
#> 10 comp_5       germany     NZ 2050   2030                           0.2 
#> 11 comp_6       netherlands 1.5C RPS  2030                           0.7 
#> 12 comp_6       netherlands NZ 2050   2030                           0.2 
#> 13 comp_7       spain       1.5C RPS  2030                           0.7 
#> 14 comp_7       spain       NZ 2050   2030                           0.2 
#> # ℹ 2 more variables: sector_target_avg_best_case <dbl>,
#> #   sector_target_avg_worst_case <dbl>
example_transition_risk_product_best_case_worst_case()
#> # A tibble: 30 × 7
#>    companies_id grouping_transition_risk country transition_risk_category
#>    <chr>        <chr>                    <chr>   <chr>                   
#>  1 comp_1       1.5C RPS_2030_all        france  high                    
#>  2 comp_2       1.5C RPS_2030_all        france  high                    
#>  3 comp_1       1.5C RPS_2030_all        france  high                    
#>  4 comp_1       1.5C RPS_2030_all        france  medium                  
#>  5 comp_1       1.5C RPS_2030_all        france  low                     
#>  6 comp_1       1.5C RPS_2030_all        france  low                     
#>  7 comp_1       1.5C RPS_2030_all        france  NA                      
#>  8 comp_1       NZ 2050_2030_all         france  high                    
#>  9 comp_1       NZ 2050_2030_all         france  medium                  
#> 10 comp_1       NZ 2050_2030_all         france  medium                  
#> # ℹ 20 more rows
#> # ℹ 3 more variables: transition_risk_profile_equal_weight <dbl>,
#> #   transition_risk_profile_best_case <dbl>,
#> #   transition_risk_profile_worst_case <dbl>
…
#> # A tibble: 10 × 4
#>    companies_id product grouping_transition_risk transition_risk_category
#>    <chr>        <chr>   <chr>                    <chr>                   
#>  1 comp_1       a       1.5C RPS_2030_all        high                    
#>  2 comp_1       b       1.5C RPS_2030_all        high                    
#>  3 comp_1       c       1.5C RPS_2030_all        high                    
#>  4 comp_1       d       NA                       NA                      
#>  5 comp_1       e       NA                       NA                      
#>  6 comp_2       a       1.5C RPS_2030_all        high                    
#>  7 comp_2       b       1.5C RPS_2030_all        high                    
#>  8 comp_2       c       1.5C RPS_2030_all        high                    
#>  9 comp_3       d       NA                       NA                      
#> 10 comp_3       e       NA                       NA                      
example_sector_product_best_case_worst_case()
#> # A tibble: 30 × 8
#>    companies_id scenario  year country sector_category sector_profile_equal_we…¹
#>    <chr>        <chr>    <dbl> <chr>   <chr>                               <dbl>
#>  1 comp_1       1.5C RPS  2030 france  high                                 0.25
#>  2 comp_2       1.5C RPS  2030 france  high                                 0.25
#>  3 comp_1       1.5C RPS  2030 france  high                                 0.75
#>  4 comp_1       1.5C RPS  2030 france  medium                               0.1 
#>  5 comp_1       1.5C RPS  2030 france  low                                  0.15
#>  6 comp_1       1.5C RPS  2030 france  low                                  0.55
#>  7 comp_1       1.5C RPS  2030 france  NA                                   0.3 
#>  8 comp_1       NZ 2050   2030 france  high                                 0.45
#>  9 comp_1       NZ 2050   2030 france  medium                               0.6 
#> 10 comp_1       NZ 2050   2030 france  medium                               0.4 
#> # ℹ 20 more rows
#> # ℹ abbreviated name: ¹​sector_profile_equal_weight
#> # ℹ 2 more variables: sector_profile_best_case <dbl>,
#> #   sector_profile_worst_case <dbl>
…
